Place,Sex,Name,CyrillicName,BodyweightKg,Squat1Kg,Squat2Kg,Squat3Kg,Best3SquatKg,Squat4Kg,Bench1Kg,Bench2Kg,Bench3Kg,Best3BenchKg,Bench4Kg,Deadlift1Kg,Deadlift2Kg,Deadlift3Kg,Best3DeadliftKg,Deadlift4Kg,TotalKg,WeightClassKg,Event,Equipment,Tested,Division,Age,BirthDate
1,F,Ekaterina Malysheva,Екатерина Малышева,51,-80,80,85,85,,40,-45,45,45,,102.5,-115,-115,102.5,,232.5,52,SBD,Wraps,Yes,Open,31,1987-02-09
DQ,F,Ekaterina Ivanova,Екатерина Иванова,54.5,-110,-115,-115,,,,,,,,,,,,,,56,SBD,Wraps,Yes,Juniors 20-23,20,1998-08-15
1,F,Inga Abramova,Инга Абрамова,72.6,100,-105,-105,100,,50,55,-60,55,,115,120,-130,120,,275,75,SBD,Wraps,Yes,Teen 13-15,15,2002-09-30
1,F,Marina Luchnikova,Марина Лучникова,78.7,75,80,85,85,,37.5,42.5,-47.5,42.5,,90,97.5,105,105,,232.5,82.5,SBD,Wraps,Yes,Open,38,1980-03-13
1,M,Aldair Aliev,Альдаир Алиев,66.7,-145,-145,145,145,,120,125,130,130,,205,210,215,215,,490,67.5,SBD,Wraps,Yes,Open,25,1992-12-06
DQ,M,Artem Pavlovskiy,Артем Павловский,66.5,-175,-175,-175,,,,,,,,,,,,,,67.5,SBD,Wraps,Yes,Open,26,1991-12-03
1,M,Danil Rud,Даниил Рудь,68.4,-130,130,140,140,,95,100,-102.5,100,,170,180,190,190,,430,75,SBD,Wraps,Yes,Teen 16-17,17,2001-02-20
1,M,Aleksandr Korolev,Александр Королев,68.1,95,-100,-100,95,,130,135,-137.5,135,,125,130,150,150,,380,75,SBD,Wraps,Yes,Open,25,1992-10-18
1,M,Aleksandr Zverev,Александр Зверев,82.2,185,195,205,205,,100,105,-110,105,,230,250,257.5,257.5,,567.5,82.5,SBD,Wraps,Yes,Teen 16-17,17,2001-01-30
1,M,Aleksandr Zverev,Александр Зверев,82.2,185,195,205,205,,100,105,-110,105,,230,250,257.5,257.5,,567.5,82.5,SBD,Wraps,Yes,Open,17,2001-01-30
2,M,Nikolay Zhiltsov,Николай Жильцов,80.1,180,-190,190,190,,130,135,-137.5,135,,210,225,-240,225,,550,82.5,SBD,Wraps,Yes,Open,31,1987-09-09
1,M,Yuliy Chernositov,Юлий Черноситов,88.7,205,-210,,205,,152.5,157.5,,157.5,,210,220,225,225,,587.5,90,SBD,Wraps,Yes,Open,38,1979-11-30
1,M,Maksim Dudorov,Максим Дудоров,88.1,-180,195,210,210,,120,130,-135,130,,200,215,-232.5,215,,555,90,SBD,Wraps,No,Open,24,1994-04-19
1,M,Stanislav Timofeev,Станислав Тимофеев,91.2,210,220,230,230,,155,165,-170,165,,250,260,270,270,,665,100,SBD,Wraps,No,Open,38,1980-08-15
1,M,Denis Tumanov,Денис Туманов,105.7,220,235,250,250,,160,180,192.5,192.5,,230,242.5,257.5,257.5,,700,110,SBD,Wraps,No,Teen 18-19,19,1998-12-14
1,M,Anton Gushchin,Антон Гущин,121.6,-240,250,260,260,,205,212.5,-217.5,212.5,,290,305,-310,305,,777.5,125,SBD,Wraps,No,Open,32,1986-09-15
1,F,Ekaterina Knyazeva,Екатерина Князева,47.4,60,65,-70,65,,35,37.5,40,40,,62.5,65,70,70,,175,48,SBD,Wraps,Yes,Open,34,1984-08-27
1,F,Olga Tishuk,Ольга Тишук,51.4,110,-115,-115,110,,47.5,50,-52.5,50,,100,107.5,-112.5,107.5,,267.5,52,SBD,Wraps,Yes,Open,26,1992-07-09
DQ,M,Vyacheslav Tishuk,Вячеслав Тишук,89.7,-252.5,-252.5,-252.5,,,,,,,,,,,,,,90,SBD,Wraps,Yes,Open,29,1989-07-29
1,M,Vladislav Efimovskiy,Владислав Ефимовский,97.2,-225,225,237.5,237.5,,155,162.5,-165,162.5,,210,-227.5,230,230,,630,100,SBD,Wraps,Yes,Juniors 20-23,22,1995-12-20
DQ,M,Andrey Savinov,Андрей Савинов,94.8,-195,-200,-200,,,,,,,,,,,,,,100,SBD,Wraps,Yes,Open,38,1980-03-26
1,M,Nikolay Kitaev,Николай Китаев,79.1,245,-255,-255,245,,160,-170,,160,,260,280,-290,280,,685,82.5,SBD,Wraps,No,Open,27,1991-07-05
1,M,Sergey Smirnov,Сергей Смирнов,84.5,280,-285,,280,,-180,180,-182.5,180,,270,280,,280,,740,90,SBD,Wraps,No,Open,30,1988-06-29
1,M,Aleksandr Solovyov,Александр Соловьёв,117.1,-250,265,280,280,,160,167.5,-177.5,167.5,,280,295,-305,295,,742.5,125,SBD,Wraps,No,Open,39,1979-07-10
1,M,Aleksandr Zverev,Александр Зверев,82.2,185,195,205,205,,,,,,,,,,,,205,82.5,S,Wraps,Yes,Teen 16-17,17,2001-01-30
1,M,Aleksandr Zverev,Александр Зверев,82.2,185,195,205,205,,,,,,,,,,,,205,82.5,S,Wraps,Yes,Open,17,2001-01-30
2,M,Aleksandr Zakharov,Александр Захаров,79.6,-140,140,150,150,,,,,,,,,,,,150,82.5,S,Wraps,Yes,Open,31,1987-06-04
1,M,Pavel Osinkin,Павел Осинкин,99.9,195,200,-210,200,,,,,,,,,,,,200,100,S,Wraps,Yes,Open,35,1983-01-10
1,F,Olga Tishuk,Ольга Тишук,51.4,110,-115,-115,110,,,,,,,,,,,,110,52,S,Wraps,Yes,Open,26,1992-07-09
DQ,M,Vyacheslav Tishuk,Вячеслав Тишук,89.7,-252.5,-252.5,-252.5,,,,,,,,,,,,,,90,S,Wraps,Yes,Open,29,1989-07-29
1,F,Elizaveta Zhukova,Елизавета Жукова,41.7,,,,,,-50,50,-55,50,,,,,,,50,44,B,Raw,Yes,Juniors 20-23,21,1997-07-18
1,F,Ekaterina Popova,Екатерина Попова,53.5,,,,,,40,45,-50,45,,,,,,,45,56,B,Raw,Yes,Juniors 20-23,21,1996-12-19
1,M,Dmitriy Pirog,Дмитрий Пирог,67.5,,,,,,-90,-100,100,100,,,,,,,100,67.5,B,Raw,Yes,Teen 16-17,16,2001-12-02
1,M,Konstantin Gerega,Константин Герега,73.4,,,,,,110,117.5,-125,117.5,,,,,,,117.5,75,B,Raw,Yes,Open,30,1988-07-10
2,M,Nikolay Nikitin,Николай Никитин,73.8,,,,,,97.5,105,-110,105,,,,,,,105,75,B,Raw,Yes,Open,35,1983-03-27
1,M,Valeriy Smekalov,Валерий Смекалов,81.1,,,,,,140,150,155,155,,,,,,,155,82.5,B,Raw,Yes,Open,34,1984-04-15
2,M,Aleksandr Panov,Александр Панов,82,,,,,,140,142.5,147.5,147.5,,,,,,,147.5,82.5,B,Raw,Yes,Open,34,1983-12-01
3,M,Mikhail Marchenko,Михаил Марченко,79.3,,,,,,130,145,-150,145,,,,,,,145,82.5,B,Raw,Yes,Open,27,1991-05-27
1,M,Mikhail Andreev,Михаил Андреев,82.5,,,,,,137.5,-145,145,145,,,,,,,145,82.5,B,Raw,Yes,Masters 45-49,47,1971-07-10
2,M,Maksim Tulikov,Максим Туликов,82.5,,,,,,130,137.5,-145,137.5,,,,,,,137.5,82.5,B,Raw,Yes,Masters 40-44,41,1977-06-26
1,M,Vladislav Koval,Владислав Коваль,87,,,,,,132.5,137.5,142.5,142.5,,,,,,,142.5,90,B,Raw,Yes,Juniors 20-23,21,1997-08-18
2,M,Dmitriy Chernyaev,Дмитрий Черняев,90,,,,,,115,120,-125,120,,,,,,,120,90,B,Raw,Yes,Juniors 20-23,22,1996-06-12
1,M,Vitaliy Amenitskiy,Виталий Аменитский,84.3,,,,,,140,152.5,160,160,,,,,,,160,90,B,Raw,Yes,Open,26,1992-06-11
2,M,Aleksey Zhukov,Алексей Жуков,89.2,,,,,,150,155,-160,155,,,,,,,155,90,B,Raw,Yes,Open,34,1983-10-23
3,M,Vladislav Koval,Владислав Коваль,87,,,,,,132.5,137.5,142.5,142.5,,,,,,,142.5,90,B,Raw,Yes,Open,21,1997-08-18
4,M,Rustem Aribzhanov,Рустэм Арибжанов,89.3,,,,,,120,125,132.5,132.5,,,,,,,132.5,90,B,Raw,Yes,Open,37,1981-06-28
5,M,Nikolay Tarasov,Николай Тарасов,84.9,,,,,,95,102.5,107.5,107.5,,,,,,,107.5,90,B,Raw,Yes,Open,27,1991-03-20
1,M,Roman Starostenko,Роман Старостенко,89.6,,,,,,152.5,160,165,165,,,,,,,165,90,B,Raw,Yes,Masters 45-49,45,1973-07-06
2,M,Oleg Kozlovskiy,Олег Козловский,84.7,,,,,,100,110,112.5,112.5,,,,,,,112.5,90,B,Raw,Yes,Masters 40-44,42,1976-07-27
1,M,Yuriy Gubanov,Юрий Губанов,96.7,,,,,,170,177.5,-182.5,177.5,,,,,,,177.5,100,B,Raw,Yes,Open,31,1987-03-06
2,M,Denis Rybakov,Денис Рыбаков,97,,,,,,145,-155,-155,145,,,,,,,145,100,B,Raw,Yes,Open,33,1985-05-18
1,M,Sergey Savvin,Сергей Саввин,104.1,,,,,,160,167.5,-175,167.5,,,,,,,167.5,110,B,Raw,Yes,Masters 40-44,44,1973-10-10
1,M,Aleksandr Filatov,Александр Филатов,123.7,,,,,,170,177.5,182.5,182.5,,,,,,,182.5,125,B,Raw,Yes,Masters 40-44,41,1977-06-16
1,M,Oksana Kuznetsova,Оксана Кузнецова,56,,,,,,77.5,82.5,87.5,87.5,92.5,,,,,,87.5,56,B,Raw,No,Open,28,1990-07-07
1,M,Vladimir Osipov,Владимир Осипов,66.8,,,,,,150,157.5,-162.5,157.5,,,,,,,157.5,67.5,B,Raw,No,Open,32,1985-10-27
1,M,Denis Sokov,Денис Соков,80,,,,,,172.5,177.5,-180,177.5,,,,,,,177.5,82.5,B,Raw,No,Open,32,1985-12-06
1,M,Aleksey Zverev,Алексей Зверев,82.3,,,,,,140,150,-160,150,,,,,,,150,82.5,B,Raw,No,Masters 40-44,41,1977-05-22
1,M,Vladislav Volchanov,Владислав Волчанов,86.8,,,,,,165,175,180,180,,,,,,,180,90,B,Raw,No,Open,42,1975-10-31
1,M,Sergey Surkov,Сергей Сурков,99.9,,,,,,175,185,192.5,192.5,,,,,,,192.5,100,B,Raw,No,Open,32,1985-10-14
2,M,Roman Khorev,Роман Хорев,90.3,,,,,,175,182.5,-185,182.5,,,,,,,182.5,100,B,Raw,No,Open,36,1982-08-04
1,M,Denis Tumanov,Денис Туманов,105.7,,,,,,160,180,192.5,192.5,,,,,,,192.5,110,B,Raw,No,Teen 18-19,19,1998-12-14
1,M,Vasiliy Maksimenkov,Василий Максименков,104,,,,,,200,210,-212.5,210,,,,,,,210,110,B,Raw,No,Open,35,1982-12-14
2,M,Evgeniy Ryazantsev,Евгений Рязанцев,107.1,,,,,,165,170,175,175,,,,,,,175,110,B,Raw,No,Open,32,1986-02-17
1,M,Andrey Makevnin,Андрей Макевнин,100.7,,,,,,-157.5,160,165,165,,,,,,,165,110,B,Raw,No,Masters 55-59,57,1961-05-18
1,M,Ivan Palilov,Иван Палилов,123.2,,,,,,210,217.5,-222.5,217.5,,,,,,,217.5,125,B,Raw,No,Open,41,1976-11-14
2,M,Pavel Gundorov,Павел Гундоров,120.6,,,,,,-190,-190,190,190,,,,,,,190,125,B,Raw,No,Open,41,1977-08-02
1,M,Aleksandr Fotin,Александр Фотин,127.4,,,,,,250,-265,-265,250,,,,,,,250,140,B,Raw,No,Open,27,1991-03-09
1,M,Ivan Streltsov,Иван Стрельцов,88.8,,,,,,-140,140,-150,140,,,,,,,140,90,B,Single-ply,Yes,Open,29,1989-08-15
1,F,Olga Tishuk,Ольга Тишук,51.4,,,,,,,,,,,100,107.5,-112.5,107.5,,107.5,52,D,Raw,Yes,Open,26,1992-07-09
1,M,Vyacheslav Gretskov,Вячеслав Грецков,55.3,,,,,,,,,,,135,145,150,150,-155,150,56,D,Raw,Yes,Teen 18-19,18,2000-07-30
1,M,Aldair Aliev,Альдаир Алиев,66.7,,,,,,,,,,,-215,-215,215,215,,215,67.5,D,Raw,Yes,Open,25,1992-12-06
1,M,Aleksandr Zverev,Александр Зверев,82.2,,,,,,,,,,,230,250,257.5,257.5,,257.5,82.5,D,Raw,Yes,Teen 16-17,17,2001-01-30
2,M,Artem Ogurtsov,Артем Огурцов,81.9,,,,,,,,,,,167.5,177.5,190,190,,190,82.5,D,Raw,Yes,Teen 16-17,16,2002-05-04
1,M,Aleksandr Zverev,Александр Зверев,82.2,,,,,,,,,,,230,250,257.5,257.5,,257.5,82.5,D,Raw,Yes,Open,17,2001-01-30
1,M,Ivan Malyshev,Иван Малышев,88.6,,,,,,,,,,,177.5,187.5,-202.5,187.5,,187.5,90,D,Raw,Yes,Teen 13-15,15,2002-12-22
1,M,Aleksandr Chupanov,Александр Чупанов,88.5,,,,,,,,,,,180,190,-202.5,190,,190,90,D,Raw,Yes,Juniors 20-23,22,1996-05-08
1,M,Vyacheslav Tishuk,Вячеслав Тишук,89.7,,,,,,,,,,,230,240,-250,240,,240,90,D,Raw,Yes,Open,29,1989-07-29
2,M,Yuriy Ryabinin,Юрий Рябинин,83.2,,,,,,,,,,,190,-202.5,-202.5,190,,190,90,D,Raw,Yes,Open,38,1980-08-03
DQ,M,Vyacheslav Tishuk,Вячеслав Тишук,89.7,,,,,,,,,,,-240,,,,,,90,D,Raw,Yes,Open,29,1989-07-29
1,M,Anton Skovpen,Антон Сковпень,104.8,,,,,,,,,,,230,250,-260,250,,250,110,D,Raw,Yes,Juniors 20-23,23,1995-07-08
1,M,Andrey Fomin,Андрей Фомин,89.5,,,,,,,,,,,210,230,240,240,,240,90,D,Raw,No,Open,36,1982-04-02
1,M,Ivan Dmitriev,Иван Дмитриев,97.3,,,,,,,,,,,300,315,-330,315,,315,100,D,Raw,No,Open,48,1970-06-11
1,M,Ruslan Novikov,Руслан Новиков,108.6,,,,,,,,,,,275,-285,-285,275,,275,110,D,Raw,No,Open,30,1988-01-11
1,M,Viktor Kapralov,Виктор Капралов,113.5,,,,,,,,,,,220,,,220,,220,125,D,Raw,No,Open,36,1981-09-30
1,M,Kirill Shlyapnikov,Кирилл Шляпников,65.8,,,,,,85,90,95,95,,,,,,,95,67.5,B,Raw,Yes,Teen 13-15,15,2003-07-11
1,M,Aleksandr Korolev,Александр Королев,68.1,,,,,,130,-135,135,135,,,,,,,135,75,B,Raw,Yes,Open,25,1992-10-18
1,M,Danil Timashev,Данил Тимашев,72.9,,,,,,85,92.5,-100,92.5,,,,,,,92.5,75,B,Raw,Yes,Juniors 20-23,23,1995-09-05
1,M,Vladimir Shlyapnikov,Владимир Шляпников,98.6,,,,,,160,167.5,-175,167.5,,,,,,,167.5,100,B,Raw,Yes,Open,37,1981-07-24
1,M,Aleksandra Kozhaeva,Александра Кожаева,88.9,,,,,,125,130,-135,130,,,,,,,130,90,B,Single-ply,No,Open,31,1987-09-12
1,M,Sergey Rychagov,Сергей Рычагов,108.9,,,,,,220,-240,240,240,,,,,,,240,110,B,Single-ply,No,Open,38,1980-05-20
1,M,Sergey Averkin,Сергей Аверкин,108.3,,,,,,200,-220,-220,200,,,,,,,200,110,B,Single-ply,No,Masters 40-44,42,1976-08-04
1,M,Aleksandr Vorobyov,Александр Воробьёв,116.2,,,,,,-230,-230,230,230,,,,,,,230,125,B,Single-ply,No,Masters 45-49,46,1972-02-11
