Name,Age,Division,BodyweightKg,WeightClassKg,Squat1Kg,Squat2Kg,Squat3Kg,Best3SquatKg,Bench1Kg,Bench2Kg,Bench3Kg,Best3BenchKg,Deadlift1Kg,Deadlift2Kg,Deadlift3Kg,Best3DeadliftKg,TotalKg,Place,Sex,Equipment,Tested,Event
Adam Bellingham,47,M_MEM_2_AAPF,102.15,110,,,,,150,-155,155,155,,,,,155,1,M,Multi-ply,Yes,B
Bill Busby,63,M_MR_5_APF,81.5,82.5,,,,,117.5,122.5,-127.5,122.5,,,,,122.5,1,M,Raw,,B
Bill Busby,63,M_MR_5_AAPF,81.5,82.5,,,,,117.5,122.5,-127.5,122.5,,,,,122.5,1,M,Raw,Yes,B
Bruce McCord,54,M_MR_3_AAPF,115.25,125,,,,,125,-137.5,,125,,,,,125,1,M,Raw,Yes,B
Dawn Maroscher,47,F_OR_AAPF,65.5,67.5,,,,,85,92.5,-95,92.5,,,,,92.5,1,F,Raw,Yes,B
Dawn Maroscher,47,F_MR_2_AAPF,65.5,67.5,,,,,85,92.5,-95,92.5,,,,,92.5,1,F,Raw,Yes,B
Donato Arredondo,41,M_MR_1_APF,102.45,110,,,,,-127.5,130,-155,130,,,,,130,1,M,Raw,,B
Freddy Crosby,40,M_MR_1_AAPF,98.5,100,,,,,175,-187.5,187.5,187.5,,,,,187.5,1,M,Raw,Yes,B
Gary Kachar,58,M_MEM_4_APF,128.9,140,,,,,155,-167.5,-167.5,155,,,,,155,1,M,Multi-ply,,B
Gary Kachar,58,M_MEM_4_AAPF,128.9,140,,,,,155,-167.5,-167.5,155,,,,,155,1,M,Multi-ply,Yes,B
James Briggs,56,M_MR_4_APF,98.15,100,,,,,102.5,107.5,,107.5,,,,,107.5,1,M,Raw,,B
James Briggs,56,M_MR_4_AAPF,98.15,100,,,,,102.5,107.5,,107.5,,,,,107.5,1,M,Raw,Yes,B
Josh Anderson,37,M_SR_AAPF,134.9,140,,,,,170,177.5,185,185,,,,,185,1,M,Raw,Yes,B
Justin Sepe,28,M_OEM_APF,82.1,82.5,,,,,-182.5,-182.5,187.5,187.5,,,,,187.5,1,M,Multi-ply,,B
Luis Sosa,27,M_OR_AAPF,103.65,110,,,,,-170,170,177.5,177.5,,,,,177.5,1,M,Raw,Yes,B
Matthew Walsh,51,M_MR_3_APF,98.5,100,,,,,167.5,177.5,-182.5,177.5,,,,,177.5,1,M,Raw,,B
Michael Robinson,46,M_MR_2_APF,107.25,110,,,,,142.5,150,155,155,,,,,155,1,M,Raw,,B
Michael Robinson,46,M_MR_2_AAPF,107.25,110,,,,,142.5,150,155,155,,,,,155,1,M,Raw,Yes,B
Mike Nelson,24,M_OR_AAPF,120.4,125,,,,,145,-165,,145,,,,,145,1,M,Raw,Yes,B
Nick Berry,23,M_JR_AAPF,136.6,140,,,,,180,192.5,207.5,207.5,,,,,207.5,1,M,Raw,Yes,B
Richard Derengowski,33,M_OEM_APF,89.4,90,,,,,-240,240,,240,,,,,240,1,M,Multi-ply,,B
Richard Derengowski,33,M_OEM_AAPF,89.4,90,,,,,-240,240,,240,,,,,240,1,M,Multi-ply,Yes,B
Rich Kelly,61,M_MEM_5_AAPF,97.6,100,,,,,185,-192.5,192.5,192.5,,,,,192.5,1,M,Multi-ply,Yes,B
Tate Briggs,20,M_JR_APF,135,140,,,,,160,167.5,172.5,172.5,,,,,172.5,1,M,Raw,,B
Tate Briggs,20,M_JR_AAPF,135,140,,,,,160,167.5,172.5,172.5,,,,,172.5,2,M,Raw,Yes,B
Tim Brechon,34,M_SR_APF,110.55,125,,,,,-170,175,185,185,,,,,185,1,M,Raw,,B
Tracy Frein,56,M_MEM_4_AAPF,95.9,100,,,,,-160,-160,-160,,,,,,,DQ,M,Multi-ply,Yes,B
Wally Anczerewicz,73,M_MR_7_APF,88.45,90,,,,,92.5,102.5,-105,102.5,,,,,102.5,1,M,Raw,,B
Wally Anczerewicz,73,M_MR_7_AAPF,88.45,90,,,,,92.5,102.5,-105,102.5,,,,,102.5,1,M,Raw,Yes,B
Daniel Morand,23,M_OEM_APF,94.9,100,275,302.5,-320,302.5,220,227.5,,227.5,220,227.5,-242.5,227.5,757.5,2,M,Multi-ply,,SBD
Dave Chastain,46,M_MEM_2_APF,87.15,90,210,220,-235,220,117.5,-120,,117.5,210,220,227.5,227.5,565,1,M,Multi-ply,,SBD
Dennis Avinger,47,M_MR_2_AAPF,93.55,100,90,105,127.5,127.5,70,82.5,-105,82.5,132.5,150,165,165,375,1,M,Raw,Yes,SBD
Doug Petersen,60,M_MR_5_AAPF,81.7,82.5,177.5,192.5,-202.5,192.5,122.5,-127.5,,122.5,197.5,212.5,-222.5,212.5,527.5,1,M,Raw,Yes,SBD
Dustin Gray,30,M_OEM_AAPF,132.05,140,-385,385,-395,385,-265,265,-315,265,-275,-275,275,275,925,1,M,Multi-ply,Yes,SBD
Frank Ritter,49,M_MR_2_APF,121.5,125,225,250,-272.5,250,-180,-180,180,180,210,227.5,-235,227.5,657.5,1,M,Raw,,SBD
Jeffery Kensey,56,M_MR_4_AAPF,90,90,110,127.5,-145,127.5,67.5,87.5,-102.5,87.5,102.5,135,157.5,157.5,372.5,1,M,Raw,Yes,SBD
John Agee,60,M_MR_5_APF,77,82.5,85,95,-102.5,95,85,95,-100,95,105,127.5,132.5,132.5,322.5,1,M,Raw,,SBD
JP Roberts,42,M_MR_1_AAPF,81.1,82.5,142.5,152.5,-162.5,152.5,87.5,97.5,-100,97.5,152.5,170,182.5,182.5,432.5,1,M,Raw,Yes,SBD
Mark Hobneck,56,M_MR_4_APF,84.15,90,147.5,-155,,147.5,115,122.5,-127.5,122.5,147.5,,,147.5,417.5,1,M,Raw,,SBD
Matt Bluhm,22,M_OEM_AAPF,117.65,125,227.5,245,260,260,125,-137.5,-137.5,125,227.5,242.5,255,255,640,1,M,Multi-ply,Yes,SBD
Matt Ladewski,38,M_OEM_APF,99.35,100,-227.5,227.5,245,245,225,-235,-235,225,315,337.5,-350,337.5,807.5,1,M,Multi-ply,,SBD
Patrick Warren,29,M_OEM_APF,109.65,110,450,-477.5,-477.5,450,,320,-342.5,320,307.5,-320,-320,307.5,1077.5,1,M,Multi-ply,,SBD
Patrick Warren,29,M_OEM_AAPF,109.65,110,450,-477.5,-477.5,450,,320,-342.5,320,307.5,-320,-320,307.5,1077.5,1,M,Multi-ply,Yes,SBD
Pete Berg,46,M_MEM_2_AAPF,124.55,125,-227.5,227.5,,227.5,145,-150,,145,250,-265,272.5,272.5,645,1,M,Multi-ply,Yes,SBD
Pete Radlowski,30,M_OEM_AAPF,89.9,90,195,-205,205,205,150,155,-160,155,272.5,-300,-300,272.5,632.5,1,M,Multi-ply,Yes,SBD
Raymond Apton,49,M_MR_2_AAPF,120.55,125,92.5,115,142.5,142.5,77.5,102.5,112.5,112.5,95,140,165,165,420,1,M,Raw,Yes,SBD
Ronnie Sulvita,24,M_OEM_AAPF,87.45,90,162.5,175,-180,175,115,125,-127.5,125,205,207.5,212.5,212.5,512.5,2,M,Multi-ply,Yes,SBD
Ted Czmiel,62,M_MR_5_AAPF,88.35,90,77.5,90,-97.5,90,52.5,60,-72.5,60,115,-130,130,130,280,2,M,Raw,Yes,SBD
Tim Weikert,53,M_MEM_3_AAPF,89.8,90,-227.5,227.5,242.5,242.5,165,170,-175,170,230,245,252.5,252.5,665,1,M,Multi-ply,Yes,SBD
Tony Cimbalo,42,M_MR_1_APF,99,100,147.5,155,-175,155,137.5,-147.5,-147.5,137.5,137.5,150,-170,150,442.5,1,M,Raw,,SBD
William Hosken,78,M_MR_8_AAPF,77.2,82.5,-85,-85,85,85,50,-55,-55,50,110,120,125,125,260,1,M,Raw,Yes,SBD
Aaron Hall,26,M_OR_APF,108.15,110,-257.5,257.5,-282.5,257.5,-185,,,,,,,,,DQ,M,Raw,,SBD
Alex Kutches,23,M_OR_APF,92.55,100,155,175,-177.5,175,112.5,125,-127.5,125,182.5,200,227.5,227.5,527.5,4,M,Raw,,SBD
Anthony Muzquiz,24,M_OR_APF,80.45,82.5,152.5,-165,170,170,107.5,-120,-125,107.5,152.5,180,192.5,192.5,470,3,M,Raw,,SBD
Brandon Burd,24,M_OR_APF,63.7,67.5,-125,125,-137.5,125,87.5,97.5,-100,97.5,135,145,157.5,157.5,380,1,M,Raw,,SBD
Brian Roberts,39,M_OR_AAPF,166.25,140+,240,262.5,-272.5,262.5,170,172.5,-182.5,172.5,250,267.5,272.5,272.5,707.5,1,M,Raw,Yes,SBD
Chad Murphy,26,M_OR_AAPF,95.15,100,142.5,-147.5,-147.5,142.5,-112.5,-112.5,-112.5,,172.5,182.5,187.5,187.5,,DQ,M,Raw,Yes,SBD
Chris Brown,35,M_OR_AAPF,120.85,125,205,217.5,227.5,227.5,155,162.5,167.5,167.5,242.5,262.5,272.5,272.5,667.5,1,M,Raw,Yes,SBD
Cleveland Rose,35,M_OR_AAPF,93.5,100,142.5,152.5,172.5,172.5,85,97.5,107.5,107.5,120,182.5,190,190,470,1,M,Raw,Yes,SBD
Daniel Surdyk,27,M_OR_AAPF,86.65,90,-185,-200,200,200,115,122.5,-132.5,122.5,200,215,-220,215,537.5,4,M,Raw,Yes,SBD
David Campbell,25,M_OR_AAPF,88.6,90,175,192.5,200,200,132.5,145,-150,145,220,235,247.5,247.5,592.5,2,M,Raw,Yes,SBD
David Hernandez,34,M_SR_AAPF,82,82.5,145,150,-157.5,150,112.5,120,-127.5,120,170,182.5,-192.5,182.5,452.5,4,M,Raw,Yes,SBD
David Knoerzer,28,M_OR_APF,96.85,100,170,185,192.5,192.5,125,132.5,-140,132.5,215,227.5,237.5,237.5,562.5,3,M,Raw,,SBD
David Sanchez-Aparicio,30,M_OR_AAPF,81.55,82.5,165,182.5,-192.5,182.5,90,102.5,-115,102.5,165,172.5,185,185,470,2,M,Raw,Yes,SBD
Delfino Cordova,26,M_OR_AAPF,80.45,82.5,130,142.5,150,150,92.5,102.5,110,110,155,165,177.5,177.5,437.5,3,M,Raw,Yes,SBD
Don Michael Tinimbang,33,M_OR_AAPF,72.75,75,152.5,-157.5,-157.5,152.5,100,105,-110,105,207.5,215,-227.5,215,472.5,2,M,Raw,Yes,SBD
Don Michael Tinimbang,33,M_SR_AAPF,72.75,75,152.5,-157.5,-157.5,152.5,100,105,-110,105,207.5,215,-227.5,215,472.5,3,M,Raw,Yes,SBD
Eric Dyson,29,M_OR_AAPF,73.65,75,72.5,92.5,-125,92.5,50,77.5,82.5,82.5,115,142.5,155,155,330,4,M,Raw,Yes,SBD
Grant McCaulley,34,M_OR_AAPF,88.8,90,200,212.5,222.5,222.5,137.5,142.5,147.5,147.5,245,255,-267.5,255,625,1,M,Raw,Yes,SBD
James Bunkley,29,M_OR_AAPF,108.95,110,170,205,252.5,252.5,100,140,157.5,157.5,197.5,262.5,-287.5,262.5,672.5,2,M,Raw,Yes,SBD
Joe Alagno,33,M_SR_AAPF,89.45,90,147.5,155,162.5,162.5,120,-130,-130,120,215,230,-245,230,512.5,2,M,Raw,Yes,SBD
Joe Ventura,29,M_OR_AAPF,66,67.5,145,-155,160,160,105,-115,-115,105,192.5,202.5,-230,202.5,467.5,2,M,Raw,Yes,SBD
John Barbaro,27,M_OR_AAPF,79.5,82.5,175,-182.5,-182.5,175,130,135,-137.5,135,215,230,240,240,550,1,M,Raw,Yes,SBD
Jonathan Chunn,26,M_OR_AAPF,73.95,75,175,190,200,200,117.5,127.5,-137.5,127.5,230,247.5,255,255,582.5,1,M,Raw,Yes,SBD
Joseph Musick,25,M_OR_APF,82.3,82.5,157.5,170,-182.5,170,130,137.5,147.5,147.5,182.5,205,227.5,227.5,545,2,M,Raw,,SBD
Josh Carpenter,27,M_OR_AAPF,89.5,90,205,215,-222.5,215,142.5,-147.5,-150,142.5,205,215,222.5,222.5,580,3,M,Raw,Yes,SBD
Ken Price,32,M_OR_AAPF,133.1,140,147.5,180,200,200,100,122.5,142.5,142.5,142.5,162.5,187.5,187.5,530,2,M,Raw,Yes,SBD
Leonard Towne,23,M_OR_AAPF,119.8,125,205,220,227.5,227.5,125,135,142.5,142.5,237.5,257.5,267.5,267.5,637.5,2,M,Raw,Yes,SBD
Manuel Cossyleon,24,M_OR_APF,105.8,110,227.5,250,272.5,272.5,160,182.5,200,200,227.5,247.5,265,265,737.5,1,M,Raw,,SBD
Matthew Hayre,29,M_OR_APF,88.3,90,137.5,152.5,-160,152.5,92.5,107.5,-115,107.5,182.5,200,205,205,465,2,M,Raw,,SBD
Michael Boettcher,26,M_OR_APF,89.75,90,205,217.5,230,230,-170,180,-182.5,180,245,-257.5,257.5,257.5,667.5,1,M,Raw,,SBD
Michael Garza,27,M_OR_APF,109.9,110,145,155,-170,155,110,-115,-115,110,220,232.5,-242.5,232.5,497.5,3,M,Raw,,SBD
Michael McNally,27,M_OR_AAPF,82.75,90,147.5,162.5,-165,162.5,97.5,-107.5,-107.5,97.5,210,-227.5,-227.5,210,470,6,M,Raw,Yes,SBD
Michael Price,31,M_OR_AAPF,139.8,140,165,182.5,217.5,217.5,125,147.5,165,165,182.5,205,242.5,242.5,625,1,M,Raw,Yes,SBD
Mike Sanchez #1,23,M_OR_APF,116.05,125,185,207.5,-215,207.5,117.5,140,-160,140,185,207.5,227.5,227.5,575,1,M,Raw,,SBD
Milton Moses,29,M_OR_AAPF,116.55,125,152.5,175,200,200,122.5,137.5,150,150,-175,197.5,227.5,227.5,577.5,3,M,Raw,Yes,SBD
Mitchell Salinas,27,M_OR_AAPF,87.85,90,160,177.5,185,185,75,80,100,100,165,175,182.5,182.5,467.5,7,M,Raw,Yes,SBD
Nick Skridla,37,M_OR_APF,81.4,82.5,147.5,155,162.5,162.5,117.5,127.5,-130,127.5,245,255,-260,255,545,1,M,Raw,,SBD
Nick Skridla,37,M_SR_APF,81.4,82.5,147.5,155,162.5,162.5,117.5,127.5,-130,127.5,245,255,-260,255,545,1,M,Raw,,SBD
Patrick Lulewicz,22,M_OR_AAPF,88.9,90,155,165,-175,165,120,-130,-130,120,175,187.5,202.5,202.5,487.5,5,M,Raw,Yes,SBD
Ricky Stettner,32,M_OR_AAPF,107.3,110,170,177.5,185,185,-110,110,-120,110,185,197.5,-207.5,197.5,492.5,3,M,Raw,Yes,SBD
Robert Bain,33,M_OR_APF,108.7,110,-242.5,242.5,-252.5,242.5,135,145,-155,145,250,272.5,292.5,292.5,680,2,M,Raw,,SBD
Robert Bain,33,M_OR_AAPF,108.7,110,-242.5,242.5,-252.5,242.5,135,145,-155,145,250,272.5,292.5,292.5,680,1,M,Raw,Yes,SBD
Ryan Harker,34,M_SR_AAPF,81.2,82.5,185,195,205,205,107.5,117.5,-122.5,117.5,190,212.5,227.5,227.5,550,1,M,Raw,Yes,SBD
Tim Welch,29,M_OR_APF,99.25,100,195,215,230,230,132.5,140,-142.5,140,237.5,260,-265,260,630,2,M,Raw,,SBD
TJ Kropp,23,M_OR_APF,99.4,100,235,245,-255,245,190,200,-210,200,270,285,295,295,740,1,M,Raw,,SBD
Tony Romero,24,M_OR_AAPF,64.35,67.5,145,157.5,-162.5,157.5,90,97.5,-100,97.5,192.5,205,212.5,212.5,467.5,1,M,Raw,Yes,SBD
Travis Koehring,25,M_OR_AAPF,73.8,75,135,142.5,150,150,90,97.5,-102.5,97.5,180,187.5,192.5,192.5,440,3,M,Raw,Yes,SBD
Willis Pennington,34,M_OR_AAPF,97.95,100,82.5,125,147.5,147.5,80,102.5,-142.5,102.5,142.5,165,192.5,192.5,442.5,2,M,Raw,Yes,SBD
Alex Knudsen,19,M_TR_3_AAPF,98.95,100,-185,185,-190,185,97.5,102.5,-110,102.5,187.5,200,205,205,492.5,4,M,Raw,Yes,SBD
Ali Shegarfi,18,M_TEM_3_APF,89.75,90,-202.5,-202.5,-202.5,,-137.5,-137.5,-137.5,,177.5,185,190,190,,DQ,M,Multi-ply,,SBD
Andrew Chastain,20,M_JEM_APF,88.7,90,-272.5,297.5,-310,297.5,142.5,152.5,-160,152.5,227.5,247.5,-257.5,247.5,697.5,1,M,Multi-ply,,SBD
Andrew Chastain,20,M_JEM_AAPF,88.7,90,-272.5,297.5,,297.5,142.5,152.5,-160,152.5,227.5,247.5,-257.5,247.5,697.5,1,M,Multi-ply,Yes,SBD
Andrew McCullough,23,M_JR_AAPF,81.8,82.5,192.5,207.5,215,215,122.5,132.5,137.5,137.5,205,220,230,230,582.5,2,M,Raw,Yes,SBD
Anthony Pace,23,M_JR_AAPF,74.5,75,177.5,192.5,-212.5,192.5,92.5,-102.5,-102.5,92.5,182.5,197.5,-210,197.5,482.5,5,M,Raw,Yes,SBD
Antonio Macaraeg,21,M_JR_AAPF,72.25,75,182.5,195,205,205,102.5,107.5,-115,107.5,182.5,197.5,207.5,207.5,520,3,M,Raw,Yes,SBD
Antonio Vazquez,21,M_JR_AAPF,75.75,82.5,152.5,160,170,170,105,110,-117.5,110,182.5,195,200,200,480,7,M,Raw,Yes,SBD
Chris Hall,21,M_JR_AAPF,98.3,100,240,-252.5,-252.5,240,165,-177.5,-177.5,165,265,275,280,280,685,1,M,Raw,Yes,SBD
Christopher Graf,22,M_JR_AAPF,109.25,110,210,220,-227.5,220,140,150,-165,150,220,232.5,-245,232.5,602.5,4,M,Raw,Yes,SBD
Cole Chalmers,13,M_TEM_1_AAPF,59.75,60,110,127.5,-137.5,127.5,57.5,65,-77.5,65,110,130,-140,130,322.5,1,M,Multi-ply,Yes,SBD
Danny Berg,16,M_TR_2_AAPF,105.8,110,125,-182.5,-182.5,125,102.5,117.5,-130,117.5,207.5,227.5,-235,227.5,470,7,M,Raw,Yes,SBD
Edward Borstein,17,M_TR_2_AAPF,69.05,75,115,125,-137.5,125,80,85,87.5,87.5,132.5,145,-150,145,357.5,8,M,Raw,Yes,SBD
Francisco Pena,22,M_JR_AAPF,77.4,82.5,-125,125,132.5,132.5,70,75,82.5,82.5,130,150,165,165,380,12,M,Raw,Yes,SBD
Jared Cruz,17,M_TR_2_AAPF,65.95,67.5,130,142.5,150,150,110,-120,-120,110,142.5,157.5,-167.5,157.5,417.5,2,M,Raw,Yes,SBD
Jason Garrett,23,M_JR_AAPF,88.9,90,162.5,172.5,-182.5,172.5,107.5,-112.5,115,115,207.5,217.5,227.5,227.5,515,9,M,Raw,Yes,SBD
Jeremy Kensey,21,M_JR_AAPF,72.05,75,60,97.5,142.5,142.5,62.5,82.5,97.5,97.5,125,182.5,190,190,430,10,M,Raw,Yes,SBD
Jesse Kurth,19,M_TR_3_AAPF,61.8,67.5,-127.5,127.5,137.5,137.5,92.5,-102.5,,92.5,-165,165,,165,395,2,M,Raw,Yes,SBD
Joe Calcagno,16,M_TR_2_APF,119.4,125,195,-210,-210,195,115,-120,120,120,-195,-195,195,195,510,1,M,Raw,,SBD
Jordan Yankowski,17,M_TR_2_AAPF,74.75,75,162.5,172.5,-182.5,172.5,102.5,110,115,115,165,177.5,187.5,187.5,475,1,M,Raw,Yes,SBD
Joshua Anetekahi,17,M_TR_2_AAPF,99.2,100,185,192.5,205,205,115,125,137.5,137.5,162.5,182.5,195,195,537.5,3,M,Raw,Yes,SBD
Liam Kujawski,15,M_TR_1_AAPF,65.05,67.5,100,-110,117.5,117.5,70,82.5,-87.5,82.5,110,127.5,142.5,142.5,342.5,1,M,Raw,Yes,SBD
Matthew Mecaskey,22,M_JR_APF,95.75,100,180,190,-205,190,107.5,115,-125,115,215,227.5,-245,227.5,532.5,2,M,Raw,,SBD
Miguel Ramirez,17,M_TR_2_AAPF,69.65,75,97.5,105,112.5,112.5,60,65,70,70,110,120,130,130,312.5,9,M,Raw,Yes,SBD
Mike Graf,18,M_TR_3_AAPF,73.9,75,142.5,162.5,182.5,182.5,97.5,110,117.5,117.5,162.5,182.5,210,210,510,1,M,Raw,Yes,SBD
Nick Budicak,22,M_JR_AAPF,80.7,82.5,160,172.5,-182.5,172.5,-105,110,-117.5,110,212.5,-220,220,220,502.5,6,M,Raw,Yes,SBD
Noah DuBose,16,M_TR_2_AAPF,80.4,82.5,145,162.5,165,165,82.5,95,-100,95,152.5,175,-180,175,435,5,M,Raw,Yes,SBD
Peter Ruane,18,M_TR_3_AAPF,81.6,82.5,185,197.5,215,215,25,,,25,65,,,65,305,5,M,Raw,Yes,SBD
Ronan Delve,18,M_TR_3_AAPF,97.1,100,170,-182.5,-182.5,170,112.5,120,122.5,122.5,195,212.5,-215,212.5,505,3,M,Raw,Yes,SBD
Ryan McCabe,17,M_TR_2_AAPF,87.65,90,160,172.5,-175,172.5,85,92.5,100,100,160,175,187.5,187.5,460,4,M,Raw,Yes,SBD
Samuel Chen,17,M_TR_2_AAPF,58.7,60,110,120,-130,120,62.5,70,-75,70,125,137.5,-152.5,137.5,327.5,6,M,Raw,Yes,SBD
Samuel Merrill,23,M_JR_AAPF,81.85,82.5,127.5,140,-145,140,110,-120,-120,110,170,185,-187.5,185,435,11,M,Raw,Yes,SBD
Sean Cornejo,21,M_JR_AAPF,93.9,100,175,187.5,-197.5,187.5,-125,125,-137.5,125,212.5,222.5,-232.5,222.5,535,8,M,Raw,Yes,SBD
Sean Pottow,23,M_JR_APF,89,90,157.5,167.5,-177.5,167.5,102.5,107.5,112.5,112.5,220,232.5,-245,232.5,512.5,1,M,Raw,,SBD
Aleli Hernandez,35,F_SR_AAPF,65.35,67.5,85,95,102.5,102.5,47.5,50,52.5,52.5,92.5,102.5,115,115,270,1,F,Raw,Yes,SBD
Ann LaFrance,59,F_MR_4_AAPF,99.75,90+,30,50,62.5,62.5,30,40,-50,40,62.5,80,97.5,97.5,200,2,F,Raw,Yes,SBD
Ashley Garren,29,F_OR_AAPF,76.35,82.5,110,-115,-115,110,-67.5,-67.5,67.5,67.5,130,137.5,145,145,322.5,1,F,Raw,Yes,SBD
Aurelia Freedman,28,F_OR_AAPF,65,67.5,45,52.5,65,65,35,45,-52.5,45,92.5,105,120,120,230,4,F,Raw,Yes,SBD
Bonnie Schroeder,27,F_OR_AAPF,53.85,56,102.5,107.5,-112.5,107.5,57.5,60,62.5,62.5,127.5,135,142.5,142.5,312.5,1,F,Raw,Yes,SBD
Charlie Stevens,44,F_MR_1_APF,77.05,82.5,105,117.5,125,125,70,77.5,82.5,82.5,150,165,175,175,382.5,1,F,Raw,,SBD
Chrissy Battistella,39,F_SR_AAPF,69.15,75,60,75,87.5,87.5,32.5,40,-47.5,40,102.5,117.5,130,130,257.5,2,F,Raw,Yes,SBD
Christina Moore,24,F_OR_AAPF,78.55,82.5,67.5,-75,77.5,77.5,42.5,-50,-52.5,42.5,95,102.5,107.5,107.5,227.5,2,F,Raw,Yes,SBD
Christy Senay,25,F_OR_APF,67.5,67.5,97.5,-105,-105,97.5,57.5,60,62.5,62.5,107.5,-120,132.5,132.5,292.5,1,F,Raw,,SBD
Christine Svoboda,22,F_JR_AAPF,59.8,60,85,102.5,-105,102.5,52.5,-57.5,-60,52.5,97.5,102.5,112.5,112.5,267.5,3,F,Raw,Yes,SBD
Denia Panarese,29,F_OR_AAPF,47.35,48,55,62.5,-70,62.5,35,40,-42.5,40,60,70,-85,70,172.5,1,F,Raw,Yes,SBD
Elizabeth Gray,56,F_MR_4_AAPF,54.55,56,-50,65,70,70,35,42.5,-47.5,42.5,80,90,-95,90,202.5,1,F,Raw,Yes,SBD
Jeanette Brown,35,F_OR_AAPF,59.7,60,-80,87.5,95,95,42.5,50,-52.5,50,90,105,115,115,260,3,F,Raw,Yes,SBD
Jescelia Durr,34,F_OR_AAPF,98.9,90+,60,72.5,92.5,92.5,55,-72.5,-72.5,55,142.5,150,160,160,307.5,1,F,Raw,Yes,SBD
Jescelia Durr,34,F_SR_AAPF,98.9,90+,60,72.5,92.5,92.5,55,-72.5,-72.5,55,142.5,150,160,160,307.5,3,F,Raw,Yes,SBD
Julianne Hall,28,F_OR_AAPF,59,60,102.5,-115,115,115,60,-70,-70,60,125,142.5,150,150,325,1,F,Raw,Yes,SBD
Kelly Wilson,39,F_SR_APF,78.35,82.5,112.5,117.5,125,125,60,-62.5,-62.5,60,117.5,137.5,-152.5,137.5,322.5,1,F,Raw,,SBD
Kiara Frey,27,F_OR_AAPF,114.25,90+,135,-140,140,140,62.5,67.5,-72.5,67.5,-150,-155,-155,,,DQ,F,Raw,Yes,SBD
Kimberly Raber,46,F_MR_2_APF,80.55,82.5,140,147.5,-162.5,147.5,90,95,-100,95,147.5,155,-160,155,397.5,1,F,Raw,,SBD
Laura McCaulley,34,F_OR_AAPF,60.45,67.5,87.5,95,105,105,47.5,-52.5,-52.5,47.5,122.5,130,135,135,287.5,2,F,Raw,Yes,SBD
Lauren Huss,29,F_OR_APF,86.7,90,122.5,130,-137.5,130,57.5,62.5,65,65,130,140,147.5,147.5,342.5,1,F,Raw,,SBD
Lindsay Crosby,23,F_JR_AAPF,55.4,56,87.5,97.5,107.5,107.5,57.5,62.5,-67.5,62.5,115,127.5,137.5,137.5,307.5,1,F,Raw,Yes,SBD
Lindsay McGuire,25,F_OR_APF,71.45,75,130,137.5,142.5,142.5,77.5,85,90,90,160,170,-182.5,170,402.5,1,F,Raw,,SBD
Lucretia Arna,72,F_MR_7_AAPF,52,52,25,27.5,30,30,25,27.5,-30,27.5,30,45,-60,45,102.5,1,F,Raw,Yes,SBD
Megan O'Mahoney,33,F_OR_AAPF,88.25,90,120,130,-135,130,62.5,67.5,-70,67.5,137.5,145,152.5,152.5,350,1,F,Raw,Yes,SBD
Rhonda Glover,46,F_MR_2_AAPF,80.5,82.5,40,-55,-65,40,30,37.5,45,45,50,65,82.5,82.5,167.5,2,F,Raw,Yes,SBD
Sara Wilson,30,F_OR_APF,59.5,60,90,95,97.5,97.5,52.5,57.5,-60,57.5,135,-142.5,-142.5,135,290,2,F,Raw,,SBD
Sarah Heinz,26,F_OR_AAPF,55.2,56,75,-80,-80,75,45,-47.5,47.5,47.5,100,107.5,-112.5,107.5,230,3,F,Raw,Yes,SBD
Sharon Spence,66,F_MR_6_AAPF,121,90+,27.5,40,47.5,47.5,25,35,47.5,47.5,65,82.5,97.5,97.5,192.5,1,F,Raw,Yes,SBD
Shauna Sevon,27,F_OR_AAPF,59.9,60,102.5,-107.5,107.5,107.5,65,70,-75,70,120,130,-135,130,307.5,2,F,Raw,Yes,SBD
Shauna Sevon,27,F_OR_APF,59.9,60,102.5,-107.5,107.5,107.5,65,70,-75,70,120,130,-135,130,307.5,1,F,Raw,,SBD
Sheana Dyson,31,F_OR_AAPF,66.5,67.5,45,62.5,80,80,37.5,47.5,-62.5,47.5,75,100,120,120,247.5,3,F,Raw,Yes,SBD
Shorook Quran,27,F_OR_AAPF,56.95,60,65,-77.5,77.5,77.5,37.5,-42.5,-42.5,37.5,90,97.5,105,105,220,4,F,Raw,Yes,SBD
Silver Moua,23,F_JR_APF,55.5,56,107.5,-110,-110,107.5,52.5,-57.5,-57.5,52.5,107.5,110,120,120,280,1,F,Raw,,SBD
Silver Moua,23,F_JR_AAPF,55.5,56,107.5,-110,-110,107.5,52.5,-57.5,-57.5,52.5,107.5,110,120,120,280,2,F,Raw,Yes,SBD
Stacy Hawkins,29,F_OR_AAPF,97.15,90+,97.5,102.5,112.5,112.5,52.5,57.5,65,65,97.5,110,117.5,117.5,295,2,F,Raw,Yes,SBD
Sylvia Roberson,31,F_OR_AAPF,54.7,56,45,62.5,82.5,82.5,32.5,40,50,50,65,87.5,107.5,107.5,240,2,F,Raw,Yes,SBD
Tamara Kensey,49,F_MR_2_AAPF,67.15,67.5,25,40,50,50,25,27.5,32.5,32.5,52.5,80,95,95,177.5,1,F,Raw,Yes,SBD
Tatianna Latham,13,F_TR_1_AAPF,66.2,67.5,62.5,72.5,80,80,-35,35,37.5,37.5,70,77.5,82.5,82.5,200,1,F,Raw,Yes,SBD
Tessa Highmark,22,F_JR_APF,61.85,67.5,85,95,-102.5,95,50,57.5,-62.5,57.5,115,130,-137.5,130,282.5,2,F,Raw,,SBD
Tracy Somrek,25,F_OR_AAPF,66.55,67.5,87.5,110,-120,110,52.5,65,67.5,67.5,92.5,122.5,-132.5,122.5,300,1,F,Raw,Yes,SBD
Vanessa Boom Millicent Jefferies,43,F_MEM_1_AAPF,69.55,75,32.5,47.5,60,60,30,45,-52.5,45,80,87.5,102.5,102.5,207.5,1,F,Multi-ply,Yes,SBD
Victoria Ruiz,35,F_SR_AAPF,69.95,75,32.5,40,50,50,-35,40,-47.5,40,92.5,102.5,-115,102.5,192.5,4,F,Raw,Yes,SBD
Yvette Kendall,41,F_MR_1_AAPF,112.2,90+,65,95,107.5,107.5,32.5,42.5,55,55,72.5,87.5,117.5,117.5,280,1,F,Raw,Yes,SBD
